{
  "url": "",
  "title": "T2DS Configurator",
  "description": "T2DS Configurator creates a virtual environment to see how your homes would look like so you don't need to go physically to your potential home!",
  "quote": "Check my kitchen out!",
  "hashtags": "configurator,t2ds,mycolour",
  "modal_message": "Great news! You have successfully completed the Kitchen Options selection wizard. Your order is now being processed and can be accessed from within your account."
}